module apario-reader

go 1.21

require (
	github.com/andreimerlescu/configurable v0.0.8
	github.com/andreimerlescu/go-countable-waitgroup v0.0.3
	github.com/andreimerlescu/go-editorjs v0.0.1
	github.com/andreimerlescu/go-gematria v0.0.2
	github.com/andreimerlescu/go-sema v0.0.1
	github.com/andreimerlescu/go-smartchan v0.0.2
	github.com/andreimerlescu/go-textee v0.0.2
	github.com/didip/tollbooth v4.0.2+incompatible
	github.com/didip/tollbooth_gin v0.0.0-20170928041415-5752492be505
	github.com/gin-contrib/sessions v0.0.5
	github.com/gin-gonic/gin v1.9.1
	github.com/go-redis/redis/v8 v8.11.5
	github.com/gorilla/securecookie v1.1.2
	github.com/gorilla/sessions v1.2.2
	github.com/k0kubun/pp v3.0.1+incompatible
	github.com/stretchr/testify v1.8.4
	github.com/xrash/smetrics v0.0.0-20231213231151-1d8dd44e695e
	github.com/youmark/pkcs8 v0.0.0-20201027041543-1326539a0a0a
	golang.org/x/crypto v0.18.0
	golang.org/x/text v0.14.0
)

require (
	github.com/andreimerlescu/go-apario-identifier v0.0.1 // indirect
	github.com/bytedance/sonic v1.10.2 // indirect
	github.com/cespare/xxhash/v2 v2.2.0 // indirect
	github.com/chenzhuoyu/base64x v0.0.0-20230717121745-296ad89f973d // indirect
	github.com/chenzhuoyu/iasm v0.9.1 // indirect
	github.com/davecgh/go-spew v1.1.1 // indirect
	github.com/dgryski/go-rendezvous v0.0.0-20200823014737-9f7001d12a5f // indirect
	github.com/gabriel-vasile/mimetype v1.4.3 // indirect
	github.com/gin-contrib/sse v0.1.0 // indirect
	github.com/go-ini/ini v1.67.0 // indirect
	github.com/go-playground/locales v0.14.1 // indirect
	github.com/go-playground/universal-translator v0.18.1 // indirect
	github.com/go-playground/validator/v10 v10.16.0 // indirect
	github.com/goccy/go-json v0.10.2 // indirect
	github.com/gorilla/context v1.1.2 // indirect
	github.com/json-iterator/go v1.1.12 // indirect
	github.com/k0kubun/colorstring v0.0.0-20150214042306-9440f1994b88 // indirect
	github.com/klauspost/cpuid/v2 v2.2.6 // indirect
	github.com/kr/pretty v0.3.1 // indirect
	github.com/kr/text v0.2.0 // indirect
	github.com/leodido/go-urn v1.2.4 // indirect
	github.com/mattn/go-colorable v0.1.13 // indirect
	github.com/mattn/go-isatty v0.0.20 // indirect
	github.com/modern-go/concurrent v0.0.0-20180306012644-bacd9c7ef1dd // indirect
	github.com/modern-go/reflect2 v1.0.2 // indirect
	github.com/patrickmn/go-cache v2.1.0+incompatible // indirect
	github.com/pelletier/go-toml/v2 v2.1.1 // indirect
	github.com/pmezard/go-difflib v1.0.0 // indirect
	github.com/rogpeppe/go-internal v1.12.0 // indirect
	github.com/twitchyliquid64/golang-asm v0.15.1 // indirect
	github.com/ugorji/go/codec v1.2.12 // indirect
	golang.org/x/arch v0.7.0 // indirect
	golang.org/x/net v0.20.0 // indirect
	golang.org/x/sys v0.16.0 // indirect
	golang.org/x/time v0.5.0 // indirect
	google.golang.org/protobuf v1.32.0 // indirect
	gopkg.in/check.v1 v1.0.0-20201130134442-10cb98267c6c // indirect
	gopkg.in/yaml.v3 v3.0.1 // indirect
)
